…
```r
# number of grants
data %>%
  group_by(state) %>%
  summarize(grants = n(),
            total_funds = sum(funds),
            mean_award = mean(funds)
            ) %>%
  arrange(-total_funds)
```

```
## # A tibble: 49 × 4
##    state grants total_funds mean_award
##    <chr>  <int>       <dbl>      <dbl>
##  1 NY        88    19358231    219980.
##  2 IL        54    10902802    201904.
##  3 CA        51     8054269    157927.
##  4 WA        38     6640223    174743.
##  5 PA        22     4061968    184635.
##  6 TN        19     3700216    194748.
##  7 MD        26     3489221    134201.
##  8 MA        18     3366356    187020.
##  9 OH        24     3154915    131455.
## 10 CO        18     3059116    169951.
## # ℹ 39 more rows
```
…
