…
<br>

Did any institutions win multiple grants?


```r
# filter for institutions that received more than 1 grant
data_awarded %>%
  count(institution, sort = TRUE) %>%
  filter(n > 1)
```

```
## # A tibble: 142 × 2
##    institution                            n
##    <chr>                              <int>
##  1 american museum of natural history    12
##  2 denver art museum                     11
##  3 long island children's museum          9
##  4 boston children's museum               8
##  5 children's museum of indianapolis      8
##  6 morton arboretum                       8
##  7 yerba buena center for the arts        8
##  8 baltimore museum of art                7
##  9 children's museum of pittsburgh        7
## 10 lincoln park zoo                       7
## # ℹ 132 more rows
```
…
